<?xml version="1.0" encoding="utf-8"?>
<!-- Generator: Adobe Illustrator 16.0.0, SVG Export Plug-In . SVG Version: 6.00 Build 0)  -->
<!DOCTYPE svg PUBLIC "-//W3C//DTD SVG 1.1//EN" "http://www.w3.org/Graphics/SVG/1.1/DTD/svg11.dtd">
<svg version="1.1" id="Layer_1" xmlns="http://www.w3.org/2000/svg" xmlns:xlink="http://www.w3.org/1999/xlink" x="0px" y="0px"
	 width="164.542px" height="41.953px" viewBox="0 0 164.542 41.953" enable-background="new 0 0 164.542 41.953"
	 xml:space="preserve">
<g>
	<defs>
		<rect id="SVGID_1_" x="0.284" y="0" width="160.08" height="41.953"/>
	</defs>
	<clipPath id="SVGID_2_">
		<use xlink:href="#SVGID_1_"  overflow="visible"/>
	</clipPath>
	<path clip-path="url(#SVGID_2_)" fill="#FFFFFF" d="M21.26,17.956c-1.655,0-3.021,1.365-3.021,3.02s1.366,3.021,3.021,3.021
		s3.02-1.365,3.02-3.021S22.916,17.956,21.26,17.956 M21.26,22.714c-0.951,0-1.738-0.787-1.738-1.738s0.787-1.737,1.738-1.737
		s1.737,0.786,1.737,1.737S22.211,22.714,21.26,22.714"/>
	<path clip-path="url(#SVGID_2_)" fill="#FFFFFF" d="M21.26,6.081c-8.234,0-14.895,6.662-14.895,14.895
		c0,8.233,6.661,14.895,14.895,14.895c8.233,0,14.895-6.661,14.895-14.895C36.155,12.743,29.493,6.081,21.26,6.081 M21.797,11.211
		c0.125-0.91,0.208-1.82,0.291-2.192c0-0.083,0.041-0.166,0.041-0.249c2.73,0.207,5.213,1.283,7.158,2.979
		c-0.042,0.083-0.083,0.124-0.166,0.207c-0.249,0.331-0.786,1.034-1.365,1.779l-0.704,0.704c-0.414-0.166-0.827-0.166-1.117,0.124
		c-0.249,0.249-0.29,0.621-0.166,0.951c-0.331,0.456-0.703,0.87-1.075,1.242c-0.414-0.207-0.828-0.207-1.035,0.041
		c-0.124,0.124-0.207,0.331-0.165,0.579c-0.373-0.248-0.787-0.413-1.2-0.496c0.166-0.166,0.249-0.331,0.249-0.538
		c0-0.331-0.291-0.62-0.704-0.786c0-0.538,0.041-1.117,0.124-1.655c0.332-0.166,0.58-0.455,0.58-0.786
		c0-0.372-0.291-0.704-0.704-0.869L21.797,11.211z M20.391,8.73c0,0.083,0.042,0.165,0.042,0.248
		c0.083,0.414,0.166,1.283,0.29,2.193v1.035c-0.413,0.166-0.704,0.496-0.704,0.868c0,0.332,0.208,0.621,0.58,0.787
		c0.083,0.538,0.124,1.075,0.124,1.654c-0.413,0.125-0.704,0.415-0.704,0.787c0,0.207,0.083,0.373,0.249,0.538
		c-0.456,0.124-0.828,0.29-1.2,0.497c0-0.207-0.041-0.415-0.166-0.579c-0.248-0.249-0.662-0.249-1.034-0.042
		c-0.373-0.373-0.745-0.786-1.075-1.241c0.124-0.372,0.083-0.745-0.166-0.951c-0.249-0.249-0.703-0.29-1.117-0.124l-0.704-0.704
		c-0.579-0.745-1.116-1.448-1.365-1.779c-0.042-0.083-0.083-0.125-0.166-0.207C15.178,10.012,17.66,8.937,20.391,8.73 M11.992,12.95
		c0.083,0.041,0.125,0.083,0.208,0.166c0.331,0.248,1.034,0.786,1.779,1.365l0.703,0.704c-0.166,0.413-0.166,0.827,0.124,1.117
		c0.249,0.249,0.621,0.29,0.952,0.166c0.456,0.331,0.869,0.703,1.241,1.075c-0.207,0.414-0.207,0.828,0.041,1.034
		c0.125,0.125,0.331,0.207,0.58,0.166c-0.249,0.373-0.415,0.787-0.498,1.2c-0.165-0.166-0.33-0.249-0.537-0.249
		c-0.331,0-0.621,0.291-0.787,0.704c-0.538,0-1.117-0.042-1.655-0.125c-0.165-0.331-0.455-0.579-0.786-0.579
		c-0.372,0-0.703,0.291-0.868,0.704h-1.035c-0.91-0.125-1.82-0.207-2.192-0.29c-0.083,0-0.166-0.042-0.249-0.042
		C9.221,17.376,10.296,14.895,11.992,12.95 M11.992,29.002c-1.696-1.944-2.771-4.427-2.979-7.158c0.083,0,0.166-0.041,0.249-0.041
		c0.413-0.082,1.283-0.165,2.192-0.289h1.035c0.166,0.413,0.496,0.703,0.868,0.703c0.332,0,0.621-0.207,0.786-0.579
		c0.538-0.083,1.076-0.124,1.655-0.124c0.125,0.413,0.415,0.703,0.787,0.703c0.207,0,0.373-0.082,0.537-0.249
		c0.125,0.455,0.291,0.828,0.498,1.201c-0.207,0-0.415,0.041-0.58,0.165c-0.248,0.248-0.248,0.662-0.041,1.034
		c-0.373,0.373-0.786,0.744-1.241,1.076c-0.372-0.125-0.745-0.083-0.952,0.165c-0.248,0.249-0.29,0.703-0.124,1.116l-0.703,0.704
		c-0.745,0.579-1.448,1.117-1.779,1.365C12.117,28.919,12.075,28.961,11.992,29.002 M20.722,30.741
		c-0.124,0.91-0.207,1.819-0.29,2.192c0,0.083-0.042,0.165-0.042,0.248c-2.73-0.165-5.213-1.24-7.157-2.938
		c0.041-0.082,0.082-0.124,0.165-0.207c0.249-0.33,0.787-1.034,1.366-1.779l0.704-0.703c0.413,0.166,0.827,0.166,1.117-0.124
		c0.248-0.248,0.29-0.62,0.165-0.951c0.332-0.455,0.704-0.869,1.076-1.241c0.413,0.207,0.828,0.207,1.034-0.042
		c0.124-0.124,0.207-0.331,0.166-0.579c0.373,0.248,0.786,0.414,1.2,0.496c-0.166,0.166-0.249,0.332-0.249,0.538
		c0,0.332,0.29,0.621,0.704,0.787c0,0.537-0.042,1.116-0.125,1.654c-0.331,0.165-0.579,0.455-0.579,0.786
		c0,0.373,0.29,0.704,0.704,0.869L20.722,30.741z M21.095,24.576c-0.869-0.042-1.655-0.372-2.234-0.91l-0.249-0.249
		c-0.538-0.578-0.869-1.364-0.91-2.234v-0.372c0.041-0.869,0.372-1.613,0.91-2.234l0.29-0.29c0.58-0.538,1.366-0.869,2.235-0.911
		h0.372c0.87,0.042,1.614,0.373,2.234,0.911l0.291,0.29c0.537,0.58,0.868,1.366,0.909,2.234v0.372
		c-0.041,0.87-0.372,1.614-0.909,2.234l-0.249,0.249c-0.579,0.538-1.366,0.868-2.234,0.91H21.095z M22.129,33.223
		c0-0.084-0.041-0.165-0.041-0.248c-0.083-0.415-0.166-1.283-0.291-2.193v-1.034c0.414-0.165,0.704-0.496,0.704-0.869
		c0-0.331-0.207-0.621-0.579-0.786c-0.083-0.538-0.125-1.075-0.125-1.654c0.414-0.125,0.704-0.414,0.704-0.787
		c0-0.206-0.083-0.372-0.249-0.538c0.456-0.123,0.828-0.288,1.2-0.496c0,0.208,0.042,0.414,0.166,0.579
		c0.249,0.249,0.662,0.249,1.034,0.042c0.373,0.372,0.745,0.786,1.076,1.241c-0.125,0.372-0.083,0.744,0.166,0.951
		c0.248,0.249,0.703,0.29,1.116,0.124l0.704,0.703c0.579,0.745,1.117,1.449,1.366,1.779c0.041,0.083,0.083,0.125,0.165,0.207
		C27.342,31.941,24.859,33.016,22.129,33.223 M30.528,29.002c-0.083-0.041-0.124-0.083-0.207-0.166
		c-0.331-0.248-1.034-0.785-1.779-1.364l-0.704-0.704c0.166-0.413,0.166-0.827-0.124-1.117c-0.249-0.248-0.621-0.289-0.951-0.165
		c-0.456-0.331-0.869-0.703-1.242-1.075c0.208-0.414,0.208-0.828-0.041-1.034c-0.124-0.125-0.331-0.207-0.579-0.166
		c0.207-0.372,0.414-0.787,0.497-1.2c0.166,0.165,0.331,0.29,0.538,0.29c0.331,0,0.62-0.29,0.786-0.703
		c0.538,0,1.117,0.041,1.655,0.124c0.166,0.331,0.455,0.579,0.787,0.579c0.372,0,0.703-0.29,0.868-0.703h1.035
		c0.91,0.124,1.821,0.206,2.192,0.289c0.083,0,0.166,0.041,0.248,0.041C33.3,24.576,32.224,27.058,30.528,29.002 M33.258,20.148
		c-0.414,0.083-1.282,0.166-2.192,0.29h-1.035c-0.166-0.413-0.496-0.703-0.868-0.703c-0.332,0-0.621,0.207-0.787,0.579
		c-0.538,0.083-1.075,0.124-1.655,0.124c-0.124-0.413-0.414-0.703-0.786-0.703c-0.207,0-0.373,0.083-0.538,0.249
		c-0.124-0.456-0.29-0.828-0.497-1.242c0.207,0,0.414-0.041,0.579-0.166c0.249-0.248,0.249-0.662,0.041-1.034
		c0.374-0.373,0.787-0.745,1.242-1.075c0.372,0.124,0.745,0.083,0.951-0.166c0.249-0.249,0.29-0.704,0.124-1.117l0.704-0.704
		c0.745-0.579,1.448-1.117,1.779-1.365c0.083-0.042,0.124-0.083,0.207-0.166c1.696,1.945,2.772,4.426,2.979,7.158
		C33.424,20.107,33.341,20.107,33.258,20.148"/>
	<path clip-path="url(#SVGID_2_)" fill="#FFFFFF" d="M40.871,19.942c-0.869,0-0.993,0.951-2.4,0.124v-0.207
		c0-0.166-0.165-0.29-0.372-0.29c-0.124,0-0.207,0.041-0.29,0.124v-0.041v0.083v-0.083c-0.083-0.87-0.207-1.738-0.414-2.565v-0.041
		c-0.083-0.415-0.207-0.828-0.373-1.242v-0.041c-0.249-0.786-0.579-1.572-0.993-2.317c0-0.041-0.041-0.041-0.041-0.083
		c-0.372-0.745-0.828-1.447-1.324-2.151V11.17c-0.249-0.331-0.497-0.662-0.787-0.952v-0.041c0.083,0,0.207-0.041,0.29-0.124
		c0.125-0.124,0.166-0.332,0.042-0.456l-0.125-0.124c0.373-1.614,1.159-0.994,1.779-1.614c0.662-0.662,0.497-1.448,0.208-1.696
		c-0.249-0.249-1.035-0.455-1.696,0.207c-0.621,0.621-0.042,1.407-1.614,1.779l-0.124-0.124c-0.124-0.124-0.332-0.083-0.456,0.042
		c-0.083,0.082-0.124,0.165-0.124,0.29c0,0-0.042,0-0.042-0.042c-0.29-0.248-0.621-0.496-0.951-0.745
		c-0.041,0-0.041-0.041-0.083-0.041c-0.331-0.249-0.662-0.455-0.993-0.662c0,0-0.041,0-0.041-0.042
		c-0.331-0.207-0.704-0.414-1.034-0.579c-0.042-0.041-0.083-0.041-0.124-0.083c-0.746-0.373-1.489-0.704-2.276-0.951
		c-0.041,0-0.083-0.042-0.124-0.042c-0.414-0.124-0.787-0.248-1.2-0.331h-0.083c-0.828-0.207-1.696-0.332-2.565-0.414h-0.042
		c0.083-0.082,0.124-0.165,0.124-0.29c0-0.207-0.124-0.373-0.29-0.373h-0.124c-0.868-1.407,0.124-1.53,0.124-2.399
		C22.294,0.413,21.633,0,21.26,0s-1.034,0.414-1.034,1.366c0,0.869,0.951,0.992,0.124,2.399h-0.207c-0.166,0-0.29,0.166-0.29,0.373
		c0,0.125,0.041,0.208,0.124,0.29h-0.042c-0.869,0.083-1.737,0.208-2.565,0.414h-0.083c-0.414,0.083-0.786,0.207-1.2,0.331
		c-0.041,0-0.083,0.042-0.124,0.042c-0.787,0.248-1.531,0.579-2.234,0.951c-0.041,0.042-0.083,0.042-0.124,0.083
		c-0.372,0.166-0.704,0.372-1.034,0.579L12.53,6.868C12.2,7.075,11.868,7.281,11.579,7.53c-0.042,0.041-0.083,0.041-0.083,0.083
		c-0.33,0.248-0.621,0.455-0.91,0.745c0,0-0.041,0-0.041,0.041c0-0.083-0.042-0.207-0.125-0.29c-0.124-0.124-0.33-0.166-0.454-0.041
		L9.841,8.192C8.227,7.819,8.848,7.033,8.227,6.413C7.565,5.751,6.779,5.958,6.531,6.206C6.283,6.454,6.076,7.24,6.738,7.902
		c0.621,0.62,1.407,0.041,1.779,1.613L8.393,9.639C8.268,9.764,8.31,9.971,8.434,10.095c0.083,0.083,0.166,0.124,0.29,0.124
		c0,0,0,0.042-0.041,0.042l-0.042,0.041c-0.248,0.291-0.496,0.58-0.703,0.91c-0.042,0.042-0.042,0.083-0.083,0.125
		c-0.207,0.29-0.414,0.579-0.621,0.91c-0.041,0.042-0.041,0.083-0.083,0.083c-0.207,0.332-0.373,0.662-0.579,0.993
		c-0.041,0.041-0.083,0.124-0.083,0.166c-0.373,0.703-0.662,1.447-0.91,2.192c0,0.042-0.042,0.083-0.042,0.166
		c-0.124,0.373-0.249,0.786-0.331,1.158c0,0.042,0,0.083-0.042,0.125C5.083,17.542,5,17.956,4.917,18.37
		c-0.083,0.413-0.124,0.828-0.165,1.283v0.041v0.042c-0.083-0.083-0.166-0.125-0.29-0.125c-0.208,0-0.372,0.125-0.372,0.291v0.165
		c-1.407,0.87-1.531-0.124-2.4-0.124c-0.993,0-1.407,0.662-1.407,1.034s0.414,1.034,1.365,1.034c0.87,0,0.993-0.951,2.4-0.124v0.166
		c0,0.165,0.166,0.289,0.373,0.289c0.124,0,0.207-0.041,0.29-0.124v0.042V22.3c0.042,0.414,0.083,0.868,0.166,1.282v0.041
		c0.083,0.414,0.166,0.787,0.249,1.2c0,0.042,0,0.083,0.041,0.125c0.083,0.371,0.207,0.785,0.332,1.157
		c0,0.041,0.041,0.124,0.041,0.166c0.124,0.372,0.249,0.745,0.414,1.117c0.165,0.372,0.331,0.703,0.496,1.075
		c0.041,0.083,0.083,0.125,0.083,0.208c0.165,0.33,0.372,0.661,0.579,0.992c0,0.042,0.041,0.083,0.083,0.083
		c0.207,0.331,0.414,0.621,0.62,0.91c0.042,0.041,0.042,0.083,0.083,0.124c0.249,0.331,0.455,0.621,0.704,0.91l0.041,0.041
		c0,0,0,0.042,0.042,0.042c-0.083,0-0.207,0.041-0.29,0.124c-0.125,0.124-0.166,0.331-0.042,0.455l0.125,0.124
		c-0.373,1.614-1.159,0.993-1.78,1.614c-0.661,0.661-0.454,1.447-0.207,1.695c0.249,0.249,1.034,0.456,1.696-0.207
		c0.621-0.62,0.042-1.406,1.614-1.779l0.124,0.125c0.124,0.124,0.332,0.083,0.455-0.042c0.083-0.083,0.124-0.166,0.124-0.289
		c0,0,0.042,0,0.042,0.041c0,0,0.041,0,0.041,0.041c0.29,0.249,0.58,0.497,0.91,0.704c0.041,0.041,0.083,0.041,0.124,0.083
		c0.29,0.207,0.621,0.455,0.952,0.621l0.041,0.041c0.332,0.206,0.703,0.413,1.034,0.579c0.042,0.041,0.083,0.041,0.124,0.082
		c0.745,0.373,1.489,0.703,2.276,0.952c0.041,0,0.041,0,0.083,0.042c0.414,0.123,0.828,0.247,1.2,0.33h0.041
		c0.828,0.207,1.696,0.33,2.565,0.413h0.042c-0.083,0.083-0.124,0.166-0.124,0.291c0,0.206,0.124,0.372,0.29,0.372h0.166
		c0.868,1.406-0.125,1.53-0.125,2.399c0,0.952,0.704,1.365,1.034,1.365c0.373,0,1.034-0.413,1.034-1.365
		c0-0.869-0.951-0.993-0.124-2.399h0.166c0.166,0,0.29-0.166,0.29-0.372c0-0.125-0.041-0.208-0.124-0.291h0.041
		c0.869-0.083,1.738-0.206,2.566-0.413h0.041c0.413-0.083,0.828-0.207,1.241-0.33c0.042,0,0.042,0,0.083-0.042
		c0.787-0.249,1.572-0.579,2.276-0.952c0.041,0,0.083-0.041,0.124-0.041c0.372-0.207,0.704-0.373,1.075-0.579
		c0,0,0.042,0,0.042-0.041c0.331-0.207,0.662-0.415,0.993-0.662c0.041,0,0.041-0.042,0.083-0.042c0.33-0.248,0.62-0.496,0.909-0.745
		c0,0,0.042,0,0.042-0.041c0,0.082,0.041,0.207,0.124,0.29c0.124,0.124,0.331,0.166,0.455,0.041l0.124-0.124
		c1.614,0.372,0.993,1.159,1.614,1.779c0.662,0.662,1.447,0.497,1.696,0.206c0.248-0.248,0.456-1.034-0.207-1.695
		c-0.621-0.621-1.407-0.041-1.78-1.613l0.125-0.124c0.124-0.125,0.083-0.332-0.042-0.455c-0.083-0.083-0.165-0.125-0.29-0.125
		v-0.041c0.249-0.331,0.538-0.621,0.787-0.952v-0.041c0.497-0.662,0.952-1.407,1.324-2.151c0-0.041,0.041-0.041,0.041-0.083
		c0.373-0.745,0.704-1.53,0.994-2.317v-0.041c0.124-0.413,0.249-0.827,0.372-1.24v-0.042c0.207-0.828,0.332-1.696,0.414-2.565
		v-0.124V22.3v-0.041c0.083,0.082,0.166,0.123,0.29,0.123c0.208,0,0.372-0.123,0.372-0.289v-0.166
		c1.407-0.868,1.532,0.125,2.4,0.125c0.952,0,1.366-0.663,1.366-1.035C42.237,20.604,41.823,19.942,40.871,19.942 M21.26,36.823
		c-8.771,0-15.846-7.075-15.846-15.847c0-8.73,7.075-15.846,15.846-15.846s15.846,7.075,15.846,15.846
		C37.106,29.748,30.031,36.823,21.26,36.823"/>
	<path clip-path="url(#SVGID_2_)" fill="#FFFFFF" d="M59.945,11.088c-0.124,0.041-0.208,0.166-0.249,0.331
		c-0.041,0.166-0.083,0.414-0.083,0.745v6.703c0,0.332,0.042,0.579,0.083,0.745s0.125,0.249,0.249,0.332
		c0.124,0.083,0.331,0.083,0.62,0.124v0.207c-0.537-0.041-1.365-0.041-2.399-0.041c-1.076,0-1.862,0-2.4,0.041v-0.29
		c0.331,0,0.579-0.041,0.703-0.124c0.125-0.083,0.249-0.166,0.29-0.332c0.042-0.165,0.083-0.413,0.083-0.745v-6.867l-3.269,8.316
		h-0.207l-3.765-8.647v6.041c0,0.662,0.041,1.158,0.083,1.448c0.041,0.291,0.165,0.497,0.373,0.663
		c0.207,0.165,0.496,0.248,0.91,0.29v0.248c-0.373-0.041-0.869-0.041-1.531-0.041c-0.455,0-0.828,0-1.117,0.041v-0.29
		c0.29-0.041,0.497-0.165,0.621-0.29c0.124-0.124,0.207-0.331,0.29-0.621c0.083-0.29,0.083-0.662,0.083-1.199v-5.751
		c0-0.332-0.042-0.579-0.083-0.745c-0.042-0.166-0.125-0.249-0.249-0.332c-0.124-0.041-0.331-0.083-0.621-0.124v-0.29
		c0.291,0.041,0.663,0.041,1.118,0.041c1.075,0,2.027,0,2.771-0.041l2.565,5.709l2.192-5.668h1.159c1.034,0,1.82,0,2.399-0.041v0.29
		C60.275,11.005,60.069,11.046,59.945,11.088"/>
	<path clip-path="url(#SVGID_2_)" fill="#FFFFFF" d="M65.24,12.454c-0.124,0.041-0.207,0.165-0.248,0.33
		c-0.042,0.166-0.083,0.415-0.083,0.745v5.337c0,0.332,0.041,0.58,0.083,0.745c0.041,0.166,0.124,0.249,0.248,0.332
		c0.125,0.083,0.331,0.083,0.621,0.124v0.207c-0.496-0.041-1.2-0.041-2.192-0.041c-1.076,0-1.862,0-2.317,0.041v-0.29
		c0.29,0,0.496-0.041,0.62-0.124c0.125-0.041,0.208-0.166,0.249-0.331c0.041-0.166,0.083-0.414,0.083-0.746v-5.295
		c0-0.332-0.042-0.579-0.083-0.745c-0.041-0.166-0.124-0.249-0.249-0.332c-0.124-0.041-0.331-0.083-0.62-0.124v-0.29
		c0.496,0.041,1.283,0.041,2.317,0.041c0.952,0,1.696,0,2.192-0.041v0.29C65.571,12.329,65.365,12.371,65.24,12.454"/>
	<path clip-path="url(#SVGID_2_)" fill="#FFFFFF" d="M74.053,20.272c-0.579-0.041-1.572-0.041-2.938-0.041
		c-1.986,0-3.475,0-4.468,0.041v-0.29c0.289,0,0.496-0.041,0.62-0.124s0.207-0.166,0.249-0.332c0.041-0.165,0.083-0.413,0.083-0.745
		v-5.295c0-0.332-0.042-0.58-0.083-0.745c-0.042-0.166-0.125-0.249-0.249-0.332c-0.124-0.041-0.332-0.083-0.62-0.124v-0.29
		c0.993,0.041,2.482,0.041,4.468,0.041c1.242,0,2.151,0,2.689-0.041c-0.083,0.703-0.083,1.241-0.083,1.737
		c0,0.373,0,0.662,0.042,0.828h-0.332c-0.166-0.786-0.455-1.365-0.869-1.737c-0.372-0.331-0.869-0.538-1.489-0.538h-0.166
		c-0.166,0-0.29,0-0.413,0.041c-0.083,0.042-0.166,0.083-0.208,0.207c-0.041,0.083-0.082,0.249-0.082,0.456v2.896h0.29
		c0.29,0,0.538-0.083,0.786-0.248c0.207-0.166,0.373-0.332,0.496-0.579c0.125-0.249,0.208-0.455,0.249-0.704h0.29
		c-0.041,0.331-0.041,0.662-0.041,1.034v0.621c0,0.456,0.041,0.993,0.083,1.654h-0.29c-0.083-0.413-0.249-0.786-0.497-1.075
		c-0.248-0.29-0.62-0.413-1.075-0.413h-0.29v2.978c0,0.208,0.041,0.372,0.082,0.455c0.042,0.083,0.125,0.166,0.208,0.208
		c0.083,0.041,0.248,0.041,0.413,0.041h0.29c0.621,0,1.159-0.207,1.573-0.579c0.414-0.372,0.704-1.034,0.91-1.944h0.331
		c-0.041,0.249-0.041,0.579-0.041,0.951C73.97,18.908,74.011,19.527,74.053,20.272"/>
	<path clip-path="url(#SVGID_2_)" fill="#FFFFFF" d="M78.811,12.454c-0.124,0.041-0.207,0.165-0.249,0.33
		c-0.041,0.166-0.083,0.415-0.083,0.745v5.626c0,0.249,0.042,0.414,0.083,0.538c0.042,0.125,0.125,0.208,0.207,0.249
		c0.083,0.041,0.249,0.041,0.415,0.041h0.29c0.373,0,0.704-0.082,1.036-0.29c0.332-0.207,0.623-0.496,0.871-0.952
		c0.249-0.455,0.455-0.993,0.58-1.696h0.332c-0.042,0.29-0.042,0.662-0.042,1.117c0,0.579,0.042,1.283,0.083,2.151
		c-0.579-0.042-1.575-0.042-2.942-0.042c-1.986,0-3.475,0-4.468,0.042v-0.289c0.29,0,0.496-0.042,0.621-0.124
		c0.124-0.042,0.207-0.166,0.249-0.332c0.041-0.166,0.082-0.414,0.082-0.745v-5.337c0-0.332-0.041-0.579-0.082-0.745
		c-0.042-0.166-0.125-0.249-0.249-0.332c-0.125-0.041-0.331-0.083-0.621-0.124v-0.29c0.496,0.041,1.324,0.041,2.4,0.041
		c0.91,0,1.613,0,2.11-0.041v0.29C79.142,12.329,78.935,12.371,78.811,12.454"/>
	<path clip-path="url(#SVGID_2_)" fill="#FFFFFF" d="M91.062,12.577c-0.125,0.124-0.207,0.249-0.248,0.496
		c-0.042,0.207-0.083,0.538-0.083,0.994v6.206h-0.496h-0.497l-5.378-6.206v4.22c0,0.414,0.041,0.745,0.123,0.952
		c0.083,0.208,0.207,0.372,0.414,0.497c0.207,0.124,0.538,0.207,0.951,0.248v0.29c-0.454-0.041-0.992-0.041-1.654-0.041
		c-0.455,0-0.827,0-1.117,0.041v-0.29c0.29-0.041,0.496-0.124,0.62-0.248c0.125-0.083,0.207-0.249,0.248-0.497
		c0.041-0.207,0.083-0.538,0.083-0.993v-4.758c0-0.332-0.042-0.58-0.083-0.745c-0.041-0.166-0.123-0.249-0.248-0.332
		c-0.124-0.041-0.33-0.083-0.62-0.124v-0.29c0.29,0.041,0.662,0.041,1.117,0.041c0.745,0,1.364,0,1.903-0.041l4.303,4.965v-2.938
		c0-0.414-0.041-0.745-0.124-0.992c-0.083-0.207-0.207-0.373-0.414-0.498c-0.207-0.124-0.538-0.165-0.952-0.248v-0.29
		c0.455,0.041,0.993,0.041,1.655,0.041c0.497,0,0.869,0,1.117-0.041v0.29C91.394,12.371,91.187,12.453,91.062,12.577"/>
	<path clip-path="url(#SVGID_2_)" fill="#FFFFFF" d="M99.544,12.371c0.744,0.331,1.282,0.828,1.696,1.448
		c0.414,0.621,0.579,1.406,0.579,2.276c0,0.869-0.206,1.613-0.621,2.275c-0.413,0.662-0.993,1.158-1.695,1.531
		c-0.745,0.372-1.573,0.537-2.483,0.537c-0.951,0-1.819-0.166-2.523-0.496c-0.745-0.332-1.283-0.828-1.696-1.449
		c-0.414-0.62-0.579-1.406-0.579-2.275s0.207-1.613,0.621-2.276c0.413-0.661,0.992-1.158,1.696-1.53
		c0.743-0.373,1.571-0.538,2.481-0.538C97.971,11.874,98.799,12.039,99.544,12.371 M95.861,12.618
		c-0.331,0.332-0.538,0.828-0.744,1.449c-0.166,0.621-0.249,1.324-0.249,2.11c0,0.786,0.083,1.488,0.29,2.109
		c0.206,0.621,0.455,1.076,0.786,1.407c0.331,0.332,0.703,0.497,1.075,0.497c0.414,0,0.787-0.166,1.076-0.497
		c0.331-0.331,0.538-0.828,0.745-1.448c0.165-0.621,0.247-1.325,0.247-2.11s-0.082-1.489-0.289-2.11
		c-0.207-0.62-0.454-1.075-0.786-1.407c-0.33-0.331-0.703-0.496-1.076-0.496C96.523,12.122,96.151,12.288,95.861,12.618"/>
	<path clip-path="url(#SVGID_2_)" fill="#FFFFFF" d="M117.293,11.088c-0.124,0.041-0.206,0.166-0.248,0.331
		c-0.042,0.166-0.083,0.414-0.083,0.745v6.703c0,0.332,0.041,0.579,0.083,0.745s0.124,0.249,0.248,0.332
		c0.124,0.041,0.331,0.083,0.62,0.124v0.207c-0.537-0.041-1.364-0.041-2.398-0.041c-1.076,0-1.862,0-2.4,0.041v-0.29
		c0.331,0,0.579-0.041,0.704-0.124c0.124-0.083,0.248-0.166,0.288-0.332c0.042-0.165,0.083-0.413,0.083-0.745v-6.867l-3.268,8.316
		h-0.165l-3.807-8.647v6.041c0,0.662,0.041,1.158,0.083,1.448c0.041,0.291,0.165,0.497,0.372,0.663
		c0.165,0.124,0.496,0.248,0.909,0.29v0.248c-0.371-0.041-0.868-0.041-1.53-0.041c-0.455,0-0.827,0-1.117,0.041v-0.29
		c0.29-0.041,0.497-0.165,0.621-0.29c0.124-0.124,0.207-0.331,0.289-0.621c0.083-0.29,0.083-0.662,0.083-1.199v-5.751
		c0-0.332-0.042-0.579-0.083-0.745c-0.042-0.166-0.124-0.249-0.248-0.332c-0.124-0.041-0.331-0.083-0.621-0.124v-0.29
		c0.29,0.041,0.663,0.041,1.118,0.041c1.075,0,2.026,0,2.771-0.041l2.565,5.709l2.192-5.668h1.159c1.034,0,1.819,0,2.398-0.041v0.29
		C117.624,11.005,117.417,11.046,117.293,11.088"/>
	<path clip-path="url(#SVGID_2_)" fill="#FFFFFF" d="M127.347,19.983v0.29c-0.454-0.041-1.116-0.041-1.985-0.041
		c-1.076,0-1.903,0-2.399,0.041v-0.29c0.289,0,0.496-0.041,0.62-0.124s0.206-0.207,0.206-0.372c0-0.166-0.041-0.373-0.164-0.621
		l-0.662-1.53h-2.523c-0.291,0.703-0.456,1.241-0.456,1.655c0,0.373,0.124,0.62,0.331,0.745c0.206,0.124,0.538,0.207,0.91,0.248
		v0.29c-0.662-0.041-1.241-0.041-1.779-0.041c-0.414,0-0.786,0-1.034,0.041v-0.29c0.207-0.041,0.414-0.165,0.579-0.414
		c0.207-0.249,0.415-0.621,0.662-1.159l2.772-6.331c0.124,0,0.289,0.042,0.455,0.042s0.33,0,0.455-0.042l3.227,7.075
		C126.81,19.693,127.058,19.983,127.347,19.983 M121.679,14.397l-1.159,2.648h2.317L121.679,14.397z"/>
	<path clip-path="url(#SVGID_2_)" fill="#FFFFFF" d="M136.284,20.272c-0.29,0.125-0.704,0.208-1.159,0.208
		c-0.579,0-1.034-0.083-1.365-0.29c-0.331-0.208-0.537-0.497-0.62-0.828l-0.372-1.531c-0.042-0.331-0.124-0.62-0.249-0.786
		c-0.083-0.166-0.206-0.29-0.372-0.373c-0.124-0.083-0.331-0.083-0.537-0.083h-0.166v2.275c0,0.332,0.041,0.58,0.083,0.745
		c0.041,0.166,0.124,0.249,0.248,0.332c0.123,0.083,0.331,0.083,0.62,0.124v0.207c-0.579-0.041-1.406-0.041-2.523-0.041
		c-0.91,0-1.572,0-1.985,0.041v-0.29c0.288,0,0.496-0.041,0.62-0.124c0.123-0.041,0.206-0.166,0.248-0.332
		c0.041-0.165,0.083-0.413,0.083-0.745v-5.295c0-0.332-0.042-0.58-0.083-0.745c-0.042-0.166-0.125-0.249-0.248-0.332
		c-0.124-0.041-0.332-0.083-0.62-0.083v-0.29c0.413,0.041,1.075,0.041,1.902,0.041h1.655h0.662c2.606,0,3.931,0.704,3.931,2.069
		c0,0.579-0.249,1.075-0.786,1.49c-0.497,0.413-1.365,0.662-2.606,0.786l0.33,0.042c0.745,0.083,1.366,0.207,1.779,0.413
		c0.414,0.207,0.704,0.538,0.827,1.034l0.29,1.2c0.041,0.207,0.124,0.373,0.207,0.455c0.082,0.083,0.207,0.124,0.372,0.124
		c0.166,0,0.331-0.083,0.455-0.207l0.166,0.166C136.863,19.942,136.574,20.148,136.284,20.272 M131.65,12.412
		c-0.083,0.083-0.124,0.166-0.166,0.332c-0.041,0.165-0.041,0.413-0.041,0.745v2.771h0.372c0.579,0,0.993-0.165,1.199-0.497
		c0.208-0.331,0.332-0.828,0.332-1.447c0-0.663-0.083-1.159-0.29-1.49c-0.206-0.331-0.538-0.497-0.993-0.497
		C131.856,12.329,131.733,12.371,131.65,12.412"/>
	<path clip-path="url(#SVGID_2_)" fill="#FFFFFF" d="M141.456,12.454c-0.124,0.041-0.207,0.165-0.249,0.33
		c-0.041,0.166-0.082,0.415-0.082,0.745v5.337c0,0.332,0.041,0.58,0.082,0.745c0.042,0.166,0.125,0.249,0.249,0.332
		c0.123,0.083,0.331,0.083,0.62,0.124v0.207c-0.497-0.041-1.199-0.041-2.193-0.041c-1.075,0-1.861,0-2.316,0.041v-0.29
		c0.289,0,0.497-0.041,0.621-0.124c0.123-0.041,0.206-0.166,0.248-0.331c0.041-0.166,0.082-0.414,0.082-0.746v-5.295
		c0-0.332-0.041-0.579-0.082-0.745c-0.042-0.166-0.125-0.249-0.248-0.332c-0.124-0.041-0.332-0.083-0.621-0.124v-0.29
		c0.497,0.041,1.282,0.041,2.316,0.041c0.952,0,1.696,0,2.193-0.041v0.29C141.787,12.329,141.579,12.371,141.456,12.454"/>
	<path clip-path="url(#SVGID_2_)" fill="#FFFFFF" d="M150.848,12.577c-0.125,0.124-0.207,0.249-0.248,0.496
		c-0.041,0.207-0.083,0.538-0.083,0.994v6.206h-0.496h-0.496l-5.379-6.206v4.22c0,0.414,0.04,0.745,0.123,0.952
		c0.083,0.208,0.207,0.372,0.415,0.497c0.206,0.124,0.537,0.207,0.951,0.248v0.29c-0.455-0.041-0.993-0.041-1.655-0.041
		c-0.455,0-0.828,0-1.117,0.041v-0.29c0.289-0.041,0.496-0.124,0.621-0.248c0.124-0.083,0.206-0.249,0.248-0.497
		c0.041-0.207,0.082-0.538,0.082-0.993v-4.758c0-0.332-0.041-0.58-0.082-0.745c-0.042-0.166-0.124-0.249-0.248-0.332
		c-0.125-0.041-0.332-0.083-0.621-0.124v-0.29c0.289,0.041,0.662,0.041,1.117,0.041c0.744,0,1.365,0,1.903-0.041l4.303,4.965v-2.938
		c0-0.414-0.042-0.745-0.124-0.992c-0.083-0.207-0.207-0.373-0.414-0.498c-0.206-0.083-0.538-0.165-0.951-0.248v-0.29
		c0.454,0.041,0.992,0.041,1.654,0.041c0.497,0,0.869,0,1.118-0.041v0.29C151.178,12.371,150.972,12.453,150.848,12.577"/>
	<path clip-path="url(#SVGID_2_)" fill="#FFFFFF" d="M160.363,19.983v0.29c-0.455-0.041-1.117-0.041-1.986-0.041
		c-1.075,0-1.902,0-2.398,0.041v-0.29c0.289,0,0.496-0.041,0.619-0.124c0.125-0.083,0.208-0.207,0.208-0.372
		c0-0.166-0.042-0.373-0.166-0.621l-0.661-1.53h-2.524c-0.289,0.703-0.455,1.241-0.455,1.655c0,0.373,0.124,0.62,0.331,0.745
		c0.207,0.124,0.537,0.207,0.91,0.248v0.29c-0.662-0.041-1.241-0.041-1.779-0.041c-0.413,0-0.785,0-1.034,0.041v-0.29
		c0.207-0.041,0.413-0.165,0.579-0.414c0.207-0.249,0.414-0.621,0.662-1.159l2.772-6.331c0.123,0,0.289,0.042,0.455,0.042
		c0.165,0,0.331,0,0.455-0.042l3.227,7.075C159.825,19.693,160.074,19.983,160.363,19.983 M154.695,14.397l-1.158,2.648h2.316
		L154.695,14.397z"/>
	<path clip-path="url(#SVGID_2_)" fill="#FFFFFF" d="M52.166,28.547c0,1.323-0.951,3.558-2.564,3.558
		c-0.332,0-0.621-0.206-0.745-0.579c-0.249,0.207-0.497,0.415-0.745,0.621l-0.125-0.083c0.083-0.165,0.125-0.331,0.166-0.496
		l1.531-5.462c0.041-0.082,0.041-0.165,0.041-0.248c0-0.248-0.166-0.33-0.579-0.33l0.041-0.166c0.662,0,1.117-0.124,1.531-0.372
		l-1.159,4.179c0.579-1.283,1.076-1.821,1.697-1.821C51.794,27.306,52.166,27.719,52.166,28.547 M51.38,28.34
		c0-0.496-0.166-0.785-0.414-0.785c-0.497,0-1.241,1.199-1.737,2.688l-0.29,1.118c0.165,0.371,0.373,0.496,0.62,0.496
		C50.553,31.899,51.38,29.665,51.38,28.34"/>
	<path clip-path="url(#SVGID_2_)" fill="#FFFFFF" d="M56.511,28.009c0,1.2-0.911,2.855-1.738,3.932
		c-0.29,0.371-0.91,1.075-1.737,1.447c-0.373,0.166-0.621,0.207-0.787,0.207c-0.249,0-0.455-0.124-0.455-0.372
		s0.249-0.414,0.496-0.414c0.291,0,0.497,0.166,0.746,0.33c0.413-0.206,0.869-0.537,1.324-1.034l-0.662-3.971
		c-0.083-0.374-0.125-0.496-0.29-0.496c-0.124,0-0.29,0.122-0.538,0.826l-0.125,0.331h-0.165l0.207-0.661
		c0.249-0.704,0.62-0.911,1.034-0.911c0.373,0,0.538,0.166,0.621,0.828l0.455,3.311c0.62-0.828,1.116-1.862,1.324-2.855
		c-0.29-0.166-0.662-0.414-0.662-0.827c0-0.29,0.207-0.456,0.455-0.456C56.387,27.306,56.511,27.554,56.511,28.009"/>
	<path clip-path="url(#SVGID_2_)" fill="#FFFFFF" d="M63.833,24.245c0.166,0.125,0.291,0.166,0.372,0.166
		c0.125,0,0.208-0.166,0.249-0.497h0.249c-0.042,0.414-0.042,0.869-0.042,2.317h-0.248c-0.083-1.076-0.621-2.194-1.862-2.194
		c-0.827,0-1.365,0.539-1.365,1.325c0,1.034,0.868,1.447,1.903,2.068c1.158,0.745,2.027,1.324,2.027,2.565
		c0,1.448-1.075,2.151-2.4,2.151c-0.786,0-1.241-0.206-1.53-0.413c-0.166-0.125-0.29-0.167-0.373-0.167
		c-0.124,0-0.207,0.167-0.249,0.497h-0.29c0.042-0.455,0.042-1.117,0.042-2.73h0.248c0.083,1.366,0.621,2.565,2.069,2.565
		c0.744,0,1.49-0.455,1.49-1.49c0-0.91-0.704-1.448-1.78-2.068c-1.075-0.661-2.026-1.241-2.026-2.523
		c0-1.324,0.992-1.944,2.109-1.944C63.213,23.79,63.544,24.037,63.833,24.245"/>
	<path clip-path="url(#SVGID_2_)" fill="#FFFFFF" d="M71.902,30.989c0.248,0.578,0.538,0.703,0.786,0.744v0.208
		c-0.29-0.042-0.786-0.042-1.2-0.042c-0.579,0-1.117,0-1.447,0.042v-0.208c0.538-0.041,0.828-0.124,0.828-0.413
		c0-0.124-0.042-0.29-0.166-0.537l-0.579-1.284h-2.772l-0.373,0.828c-0.124,0.289-0.207,0.538-0.207,0.744
		c0,0.373,0.248,0.621,0.869,0.662v0.208c-0.207-0.042-0.621-0.042-1.035-0.042c-0.249,0-0.786,0-0.993,0.042v-0.208
		c0.415-0.124,0.704-0.537,0.911-1.034l2.482-5.668h0.166L71.902,30.989z M68.716,26.396l-1.283,2.896h2.565L68.716,26.396z"/>
	<path clip-path="url(#SVGID_2_)" fill="#FFFFFF" d="M78.604,25.072v0.207c-0.456,0.125-0.621,0.372-0.952,1.117l-2.482,5.627
		h-0.166l-2.647-5.998c-0.249-0.58-0.538-0.704-0.787-0.746v-0.207c0.29,0.042,0.787,0.042,1.2,0.042c0.579,0,1.117,0,1.448-0.042
		v0.207c-0.538,0.042-0.828,0.125-0.828,0.413c0,0.125,0.041,0.29,0.165,0.539l1.944,4.385l1.697-3.765
		c0.207-0.413,0.29-0.745,0.29-0.952c0-0.454-0.332-0.578-0.911-0.62v-0.207c0.207,0.042,0.869,0.042,1.241,0.042
		C78.107,25.114,78.438,25.114,78.604,25.072"/>
	<path clip-path="url(#SVGID_2_)" fill="#FFFFFF" d="M84.731,31.941c-0.745-0.042-1.737-0.042-2.481-0.042
		c-0.663,0-2.114,0-3.191,0.042v-0.208c0.787-0.041,0.911-0.165,0.911-0.992v-4.469c0-0.827-0.165-0.952-0.911-0.993v-0.207
		c1.078,0.041,2.528,0.041,3.191,0.041c0.662,0,1.572,0,2.274-0.041c-0.041,0.496-0.081,0.994-0.081,1.241
		c0,0.29,0,0.538,0.04,0.704h-0.248c-0.124-1.241-0.455-1.655-1.406-1.655h-0.829c-0.787,0-0.912,0.124-0.912,0.951v2.11h0.953
		c0.788,0,0.87-0.744,0.953-1.159h0.248c-0.041,0.374-0.041,0.621-0.041,0.828v0.414c0,0.289,0,0.579,0.083,1.283h-0.249
		c-0.083-0.538-0.206-1.159-0.993-1.159h-0.953v2.151c0,0.827,0.166,0.951,0.912,0.951h0.829c1.116,0,1.489-0.455,1.614-1.902h0.247
		c-0.041,0.206-0.041,0.496-0.041,0.826C84.649,30.865,84.649,31.444,84.731,31.941"/>
	<path clip-path="url(#SVGID_2_)" fill="#FFFFFF" d="M88.704,25.279c-0.786,0.042-0.911,0.125-0.911,0.993v4.468
		c0,0.827,0.166,0.952,0.911,0.994v0.207c-0.331-0.042-0.911-0.042-1.448-0.042c-0.58,0-1.117,0-1.448,0.042v-0.207
		c0.786-0.042,0.91-0.167,0.91-0.994v-4.468c0-0.827-0.165-0.951-0.91-0.993v-0.207c0.331,0.042,0.868,0.042,1.448,0.042
		c0.537,0,1.075,0,1.448-0.042V25.279z"/>
	<path clip-path="url(#SVGID_2_)" fill="#FFFFFF" d="M96.523,25.279c-0.785,0.042-0.91,0.249-0.91,1.076v5.627h-0.249l-4.509-6.29
		v4.883c0,0.828,0.165,1.075,1.034,1.075v0.208c-0.29-0.041-0.786-0.041-1.158-0.041s-0.787,0-1.034,0.041V31.65
		c0.785-0.041,0.909-0.247,0.909-1.075v-4.303c0-0.827-0.165-0.951-0.909-0.993v-0.207c0.247,0.042,0.662,0.042,1.034,0.042
		s0.744,0,1.034-0.042l3.599,5.048v-3.724c0-0.828-0.124-1.034-1.034-1.075v-0.207c0.291,0.041,0.787,0.041,1.159,0.041
		s0.786,0,1.034-0.041V25.279z"/>
	<path clip-path="url(#SVGID_2_)" fill="#FFFFFF" d="M103.929,25.072v0.207c-0.454,0.125-0.62,0.372-0.951,1.117l-2.481,5.627
		h-0.166l-2.647-5.998c-0.249-0.58-0.539-0.704-0.787-0.746v-0.207c0.29,0.042,0.787,0.042,1.2,0.042c0.579,0,1.117,0,1.448-0.042
		v0.207c-0.538,0.042-0.827,0.125-0.827,0.413c0,0.125,0.041,0.29,0.165,0.539l1.944,4.385l1.696-3.765
		c0.207-0.413,0.289-0.745,0.289-0.952c0-0.454-0.33-0.578-0.909-0.62v-0.207c0.207,0.042,0.868,0.042,1.241,0.042
		C103.433,25.114,103.764,25.114,103.929,25.072"/>
	<path clip-path="url(#SVGID_2_)" fill="#FFFFFF" d="M110.053,31.941c-0.745-0.042-1.738-0.042-2.482-0.042
		c-0.662,0-2.11,0-3.186,0.042v-0.208c0.786-0.041,0.91-0.165,0.91-0.992v-4.469c0-0.827-0.166-0.952-0.91-0.993v-0.207
		c1.075,0.041,2.523,0.041,3.186,0.041s1.572,0,2.275-0.041c-0.041,0.496-0.083,0.994-0.083,1.241c0,0.29,0,0.538,0.042,0.704h-0.29
		c-0.124-1.241-0.496-1.655-1.406-1.655h-0.828c-0.785,0-0.909,0.124-0.909,0.951v2.11h0.951c0.786,0,0.868-0.744,0.951-1.159h0.249
		c-0.042,0.374-0.042,0.621-0.042,0.828v0.414c0,0.289,0,0.579,0.083,1.283h-0.29c-0.083-0.538-0.206-1.159-0.993-1.159h-0.951
		v2.151c0,0.827,0.166,0.951,0.91,0.951h0.828c1.117,0,1.489-0.455,1.613-1.902h0.248c-0.041,0.206-0.041,0.496-0.041,0.826
		C109.97,30.865,109.97,31.444,110.053,31.941"/>
	<path clip-path="url(#SVGID_2_)" fill="#FFFFFF" d="M114.935,25.32c0.166,0.125,0.289,0.166,0.373,0.166
		c0.124,0,0.207-0.166,0.248-0.496h0.248c-0.042,0.372-0.042,0.786-0.042,2.068h-0.247c-0.083-0.952-0.621-1.945-1.862-1.945
		c-0.827,0-1.365,0.455-1.365,1.117c0,0.87,0.827,1.159,1.779,1.738c1.157,0.62,2.068,1.158,2.068,2.234
		c0,1.282-1.075,1.944-2.316,1.944c-0.787,0-1.242-0.206-1.531-0.414c-0.166-0.124-0.29-0.165-0.373-0.165
		c-0.123,0-0.206,0.165-0.248,0.496h-0.248c0.041-0.413,0.041-1.034,0.041-2.481h0.249c0.083,1.241,0.62,2.358,2.068,2.358
		c0.662,0,1.406-0.373,1.406-1.284c0-0.786-0.744-1.199-1.819-1.737c-1.035-0.538-1.904-1.075-1.904-2.193
		c0-1.158,0.993-1.777,2.11-1.777C114.314,24.907,114.646,25.113,114.935,25.32"/>
	<path clip-path="url(#SVGID_2_)" fill="#FFFFFF" d="M123.416,26.396c0,0.372,0,0.703,0.042,0.91h-0.289
		c-0.124-1.489-0.415-1.986-1.614-1.986h-0.745v5.296c0,0.91,0.208,1.076,1.159,1.076v0.207c-0.373-0.041-1.034-0.041-1.655-0.041
		c-0.662,0-1.324,0-1.696,0.041v-0.207c0.951-0.042,1.158-0.166,1.158-1.076V25.32h-0.745c-1.24,0-1.488,0.497-1.613,1.986h-0.248
		c0.042-0.247,0.042-0.579,0.042-0.91c0-0.249-0.042-0.786-0.083-1.324c0.951,0.041,2.276,0.041,3.186,0.041
		c0.91,0,2.234,0,3.186-0.041C123.416,25.61,123.416,26.147,123.416,26.396"/>
</g>
</svg>
