<?xml version="1.0" encoding="utf-8"?>
<!-- Generator: Adobe Illustrator 16.0.0, SVG Export Plug-In . SVG Version: 6.00 Build 0)  -->
<!DOCTYPE svg PUBLIC "-//W3C//DTD SVG 1.1//EN" "http://www.w3.org/Graphics/SVG/1.1/DTD/svg11.dtd">
<svg version="1.1" xmlns="http://www.w3.org/2000/svg" xmlns:xlink="http://www.w3.org/1999/xlink" x="0px" y="0px" width="86px"
	 height="83.334px" viewBox="0 0 86 83.334" enable-background="new 0 0 86 83.334" xml:space="preserve">
<g id="Layer_3" display="none">
</g>
<g id="Layer_2" display="none">
	<g id="yDoPIQ_1_" display="inline">
		
			<image overflow="visible" width="154" height="121" id="yDoPIQ_2_" xlink:href="ABE3A7E3DC0FBA1C.png"  transform="matrix(1 0 0 1 78 -53)">
		</image>
	</g>
</g>
<g id="Layer_4" display="none">
	<path display="inline" fill="none" stroke="#341FFF" stroke-miterlimit="10" d="M142.413-15.585
		c1.404-12.195,11.765-21.665,24.337-21.665c13.531,0,24.5,10.969,24.5,24.5c0,10.105-6.117,18.781-14.852,22.527"/>
	<path display="inline" fill="none" stroke="#341FFF" stroke-miterlimit="10" d="M155.248-7.814"/>
	<path display="inline" fill="none" stroke="#341FFF" stroke-miterlimit="10" d="M155.256,24.306
		c-4.492,5.173-11.117,8.444-18.506,8.444c-13.531,0-24.5-10.969-24.5-24.5s10.969-24.5,24.5-24.5c1.846,0,3.645,0.205,5.374,0.592"
		/>
	<path display="inline" fill="none" stroke="#341FFF" stroke-miterlimit="10" d="M176.402,9.776
		c1.817,3.423,2.848,7.328,2.848,11.474c0,13.531-10.969,24.5-24.5,24.5s-24.5-10.969-24.5-24.5c0-4.294,1.105-8.331,3.047-11.84"/>
	<line display="inline" fill="none" stroke="#341FFF" stroke-miterlimit="10" x1="155.5" y1="24" x2="155.5" y2="-6"/>
	<line display="inline" fill="none" stroke="#341FFF" stroke-miterlimit="10" x1="155.5" y1="-6" x2="133.296" y2="9.414"/>
	<line display="inline" fill="none" stroke="#341FFF" stroke-miterlimit="10" x1="155.5" y1="-6" x2="176.749" y2="9"/>
	<line display="inline" fill="none" stroke="#341FFF" stroke-miterlimit="10" x1="155.5" y1="-6" x2="168.087" y2="-15.592"/>
	<line display="inline" fill="none" stroke="#341FFF" stroke-miterlimit="10" x1="155.5" y1="-6" x2="142.413" y2="-15.585"/>
</g>
<g id="aaaa">
	<path fill="none" stroke="#341FFF" stroke-miterlimit="10" d="M23.204-6.914C31.506-2.991,37.25,5.459,37.25,15.25
		c0,13.531-10.969,24.704-24.5,24.704c-12.57,0-22.929-9.454-24.337-21.454h0.005c-1.819,1-3.717,0.454-5.668,0.454
		c-13.531,0-24.5-11.071-24.5-24.602s10.969-24.551,24.5-24.551c7.387,0,13.76,3.243,18.252,8.413L0.5-21.5v30v-30l0.494-0.306
		c4.492-5.173,11.242-8.444,18.631-8.444c13.531,0,24.562,10.969,24.562,24.5c0,13.531-10.938,24.5-24.469,24.5
		c-1.846,0-3.629-0.205-5.358-0.592l-0.281-0.073L0.996,8.5l13.089,12.585C12.681,33.28,2.321,39.75-10.251,39.75
		c-13.531,0-24.5-10.969-24.5-24.5c0-10.105,6.118-18.781,14.852-22.527L-20.249-6.5L1,8.5L-19.966-7.276
		c-1.817-3.423-2.81-7.328-2.81-11.474c0-13.531,10.943-24.5,24.475-24.5s24.199,10.969,24.199,24.5
		c0,4.294-1.398,8.331-3.398,11.84v-0.004L-11.837,18"/>
</g>
</svg>
